<?xml version="1.0" encoding="UTF-8" standalone="no"?>
<svg
   xmlns:dc="http://purl.org/dc/elements/1.1/"
   xmlns:cc="http://creativecommons.org/ns#"
   xmlns:rdf="http://www.w3.org/1999/02/22-rdf-syntax-ns#"
   xmlns:svg="http://www.w3.org/2000/svg"
   xmlns="http://www.w3.org/2000/svg"
   xmlns:sodipodi="http://sodipodi.sourceforge.net/DTD/sodipodi-0.dtd"
   xmlns:inkscape="http://www.inkscape.org/namespaces/inkscape"
   width="210mm"
   height="297mm"
   viewBox="0 0 210 297"
   version="1.1"
   id="svg2798"
   inkscape:version="1.0.1 (3bc2e813f5, 2020-09-07)"
   sodipodi:docname="statue.svg">
  <defs
     id="defs2792" />
  <sodipodi:namedview
     id="base"
     pagecolor="#ffffff"
     bordercolor="#666666"
     borderopacity="1.0"
     inkscape:pageopacity="0.0"
     inkscape:pageshadow="2"
     inkscape:zoom="0.98994949"
     inkscape:cx="345.45689"
     inkscape:cy="252.64831"
     inkscape:document-units="mm"
     inkscape:current-layer="layer1"
     inkscape:document-rotation="0"
     showgrid="false"
     inkscape:window-width="1366"
     inkscape:window-height="704"
     inkscape:window-x="0"
     inkscape:window-y="2"
     inkscape:window-maximized="0"
     showguides="false" />
  <metadata
     id="metadata2795">
    <rdf:RDF>
      <cc:Work
         rdf:about="">
        <dc:format>image/svg+xml</dc:format>
        <dc:type
           rdf:resource="http://purl.org/dc/dcmitype/StillImage" />
        <dc:title></dc:title>
      </cc:Work>
    </rdf:RDF>
  </metadata>
  <g
     inkscape:groupmode="layer"
     id="layer16"
     inkscape:label="tête"
     style="display:inline">
    <path
       style="fill:#cccccc;stroke:#cccccc;stroke-width:0.264583px;stroke-linecap:butt;stroke-linejoin:miter;stroke-opacity:1"
       d="m 103.70806,84.985167 c 37.3692,0.19163 48.08883,-27.964001 38.6143,-49.45225 -28.43625,-29.3219706 -51.983303,-21.720368 -74.037654,0.483784 -8.700902,18.675177 0.01252,49.162896 35.423354,48.968466 z"
       id="path4009"
       sodipodi:nodetypes="cccc" />
    <path
       style="fill:#b3b3b3;stroke:#b3b3b3;stroke-width:0.264583px;stroke-linecap:butt;stroke-linejoin:miter;stroke-opacity:1"
       d="m 66.557353,49.514813 c 1.985651,-3.132981 0.878329,-7.595103 6.817886,-10.663028 5.099105,-1.829521 13.270579,-7.67196 16.873549,-7.051731 1.851507,1.004607 3.306785,3.012678 6.5393,0.519835 5.476902,-3.263322 10.903092,-5.573645 10.979152,-4.297912 -0.49545,3.292594 30.65707,2.561774 32.6928,14.222913 1.55775,5.550307 2.42408,6.43799 2.69864,17.690713 C 157.98036,13.68319 67.503949,10.830805 66.557353,49.514813 Z"
       id="path4203"
       sodipodi:nodetypes="cccccccc" />
  </g>
  <g
     inkscape:groupmode="layer"
     id="layer18"
     inkscape:label="buste">
    <path
       style="fill:#cccccc;stroke:#cccccc;stroke-width:0.264583px;stroke-linecap:butt;stroke-linejoin:miter;stroke-opacity:1"
       d="m 95.907996,84.63836 c 1.365204,3.195369 0.20536,4.119396 -0.633409,5.332227 -10.735544,6.480584 -18.922725,1.100134 -29.39994,2.827375 -10.530781,3.371582 -8.444353,17.437528 -18.894837,24.790678 4.917075,1.16655 10.289426,1.43125 12.333632,8.28865 4.272132,-5.79102 8.51384,-11.94998 13.062652,-14.39496 1.364033,5.73896 8.629716,12.38996 4.111212,16.80307 15.379468,-6.758 32.070904,-10.72239 54.927684,-1.55882 -6.09179,-4.23488 0.39693,-4.7606 3.78852,-17.02882 5.89394,1.21422 9.63534,10.28983 14.06657,16.84607 2.5902,-10.21507 5.35744,-9.36299 11.41339,-11.39556 -8.61284,-4.64422 -10.25913,-21.294524 -17.16192,-23.543612 -13.41259,-4.503593 -14.39535,3.736719 -31.88578,-0.763274 -0.92877,-1.017204 -1.65229,-3.412342 -0.83658,-5.998767 -6.75913,0.451517 -9.36686,0.528277 -14.891194,-0.204257 z"
       id="path4032"
       sodipodi:nodetypes="ccccccccccccccc" />
  </g>
  <g
     inkscape:groupmode="layer"
     id="layer20"
     inkscape:label="ombres buste 1">
    <path
       style="fill:#999999;stroke:#999999;stroke-width:0.264583px;stroke-linecap:butt;stroke-linejoin:miter;stroke-opacity:1"
       d="m 95.907994,84.638358 c 5.401576,0.301224 10.161606,0.549346 14.891196,0.204258 -0.30393,1.079232 -0.59895,2.071969 -0.29582,3.379956 -5.56587,0.138429 -8.98491,1.246775 -14.121733,-0.255054 0.380922,-1.379753 -0.09551,-2.329826 -0.473643,-3.32916 z"
       id="path4038"
       sodipodi:nodetypes="ccccc" />
    <path
       style="fill:#b3b3b3;stroke:#b3b3b3;stroke-width:0.264583px;stroke-linecap:butt;stroke-linejoin:miter;stroke-opacity:1"
       d="m 160.68347,115.14827 c -5.29159,1.10747 -9.54946,2.40738 -11.41339,11.39556 8.03756,-3.01903 9.01763,-4.84902 11.41339,-11.39556 z"
       id="path4040"
       sodipodi:nodetypes="ccc" />
    <path
       style="fill:#b3b3b3;stroke:#b3b3b3;stroke-width:0.264583px;stroke-linecap:butt;stroke-linejoin:miter;stroke-opacity:1"
       d="m 46.97981,117.58869 c 1.732006,5.43753 5.411171,7.9316 12.333632,8.2886 -1.248706,-4.24734 -4.764277,-7.3191 -12.333632,-8.2886 z"
       id="path4042"
       sodipodi:nodetypes="ccc" />
    <path
       style="fill:#999999;stroke:#999999;stroke-width:0.264583px;stroke-linecap:butt;stroke-linejoin:miter;stroke-opacity:1"
       d="m 56.91704,121.45734 c 6.541134,-6.05423 10.582811,-20.81387 16.061227,-21.03759 1.749932,11.24402 -0.210437,7.68213 -0.602174,11.06258 -4.110973,1.90412 -9.073663,8.93788 -13.062651,14.39496 -0.104747,-1.1338 -0.208499,-1.98131 -2.396402,-4.41995 z"
       id="path4044"
       sodipodi:nodetypes="ccccc" />
    <path
       style="fill:#999999;stroke:#999999;stroke-width:0.264583px;stroke-linecap:butt;stroke-linejoin:miter;stroke-opacity:1"
       d="m 119.96783,121.56883 c 4.69898,-5.16725 11.76142,-6.22579 10.89949,-21.06028 4.81804,-7.267808 14.57712,17.58727 20.48562,19.78448 -1.24641,2.27662 -1.94014,4.49084 -2.08286,6.2508 -3.84457,-5.14938 -7.78889,-15.65338 -14.06657,-16.84607 -1.4453,5.0927 -7.40505,14.96163 -7.0495,13.74853 z"
       id="path4046"
       sodipodi:nodetypes="ccccccc" />
    <path
       style="fill:#999999;stroke:#999999;stroke-width:0.264583px;stroke-linecap:butt;stroke-linejoin:miter;stroke-opacity:1"
       d="m 73.824276,106.58259 c 0.198651,6.86285 9.621946,3.9477 4.923888,18.05014 -2.339917,-5.34894 -5.36354,-9.52828 -6.372071,-13.1504 z"
       id="path4048"
       sodipodi:nodetypes="cccc" />
    <path
       style="fill:#b3b3b3;stroke:#b3b3b3;stroke-width:0.243132px;stroke-linecap:butt;stroke-linejoin:miter;stroke-opacity:1"
       d="m 121.08544,92.848562 c -4.98996,1.322498 -10.01629,1.646477 -14.71089,4.032071 -0.62369,1.821617 0.67037,2.880355 0.67037,2.880355 1.15604,-2.926596 9.22099,-4.322043 14.04052,-6.912426 z"
       id="path4050"
       sodipodi:nodetypes="cccc" />
    <path
       style="fill:#999999;stroke:#999999;stroke-width:0.264583px;stroke-linecap:butt;stroke-linejoin:miter;stroke-opacity:1"
       d="m 149.92948,98.756209 c -0.48093,3.495611 -0.28427,6.651911 1.41341,9.056541 3.58621,3.58298 6.22705,4.89035 9.34058,7.33552 -6.12343,-4.50897 -8.91564,-11.52357 -10.75399,-16.392061 z"
       id="path4052"
       sodipodi:nodetypes="cccc" />
    <path
       style="display:inline;fill:#b3b3b3;stroke:#b3b3b3;stroke-width:0.264583px;stroke-linecap:butt;stroke-linejoin:miter;stroke-opacity:1"
       d="m 85.75953,93.41661 c 15.19123,16.72279 31.2876,23.54896 47.95038,20.37978 -13.26381,1.096 -34.787158,-15.135889 -47.95038,-20.37978 z"
       id="path4056-2"
       sodipodi:nodetypes="ccc" />
    <path
       style="display:inline;fill:#b3b3b3;stroke:#b3b3b3;stroke-width:0.264583px;stroke-linecap:butt;stroke-linejoin:miter;stroke-opacity:1"
       d="m 80.801691,92.891994 c -0.116543,7.866786 0.535416,25.084806 -2.053527,31.740736 6.629106,-10.67727 6.098512,-24.19893 2.053527,-31.740736 z"
       id="path4054"
       sodipodi:nodetypes="ccc" />
  </g>
  <g
     inkscape:groupmode="layer"
     id="layer19"
     inkscape:label="robe"
     style="display:inline">
    <path
       style="fill:#cccccc;stroke:#cccccc;stroke-width:0.264583px;stroke-linecap:butt;stroke-linejoin:miter;stroke-opacity:1"
       d="m 80.801691,92.891994 c 2.601288,21.811816 -1.994327,25.781966 -4.314386,35.393406 -2.106285,0.23552 -1.584831,-6.44503 -2.091452,-10.73174 -2.855449,29.2559 -9.639076,34.25734 -1.314633,36.8743 -12.231607,19.32135 -10.785869,51.18563 -19.22636,93.30201 41.947236,11.58899 72.2068,16.40884 105.37017,-4.54662 -13.78039,-42.69155 -15.10369,-85.2957 -24.48997,-88.89971 12.1557,-5.52795 -1.60418,-20.38067 -1.02515,-40.48725 -20.01359,1.58035 -55.826576,-29.525568 -52.908219,-20.904396 z"
       id="path4035"
       sodipodi:nodetypes="ccccccccc" />
  </g>
  <g
     inkscape:groupmode="layer"
     id="layer15"
     inkscape:label="ombres tête"
     style="display:inline">
    <path
       style="fill:#b3b3b3;stroke:#b3b3b3;stroke-width:0.264583px;stroke-linecap:butt;stroke-linejoin:miter;stroke-opacity:1"
       d="m 110.12941,77.082562 c -1.49645,1.664659 -1.70381,4.113093 -5.3987,4.441079 -3.91092,0.02064 -5.707672,-2.039902 -7.266202,-4.33495 3.652192,1.693402 7.583202,2.540335 12.664902,-0.106129 z"
       id="path4130"
       sodipodi:nodetypes="cccc" />
    <path
       style="fill:#b3b3b3;stroke:#b3b3b3;stroke-width:0.264583px;stroke-linecap:butt;stroke-linejoin:miter;stroke-opacity:1"
       d="m 100.94286,69.105946 c 1.66086,0.857027 2.95423,0.824739 4.33829,0.462277 -1.72574,0.524789 -3.51837,1.21197 -4.33829,-0.462277 z"
       id="path4134"
       sodipodi:nodetypes="ccc" />
    <path
       style="fill:#b3b3b3;stroke:#b3b3b3;stroke-width:0.264583px;stroke-linecap:butt;stroke-linejoin:miter;stroke-opacity:1"
       d="m 108.68191,61.13033 c -0.14205,1.186006 1.07986,2.652998 -0.87934,3.536383 -3.05713,1.182973 -4.93457,0.697563 -7.23386,0.418101 -3.384608,-0.967753 -2.339529,-2.030709 -2.23653,-3.631975 4.12422,4.469325 7.75176,2.969371 10.34973,-0.322509 z"
       id="path4136"
       sodipodi:nodetypes="ccccc" />
    <path
       style="fill:#b3b3b3;stroke:#b3b3b3;stroke-width:0.264583px;stroke-linecap:butt;stroke-linejoin:miter;stroke-opacity:1"
       d="m 142.98375,64.57089 c -2.80543,3.287476 -6.14115,17.442878 -32.18456,20.271726 -3.8707,0.086 -6.29517,0.375869 -14.891196,-0.204258 -6.571105,-1.194666 -13.119226,-2.460954 -18.456373,-7.500943 4.63102,2.625146 22.144837,8.451658 36.372109,6.408294 20.59481,-4.173729 21.8682,-10.420027 29.16002,-18.974819 z"
       id="path4138"
       sodipodi:nodetypes="cccccc" />
    <path
       style="fill:#b3b3b3;stroke:#b3b3b3;stroke-width:0.264583px;stroke-linecap:butt;stroke-linejoin:miter;stroke-opacity:1"
       d="m 108.77018,43.094999 c 0.52614,0.111577 -3.34381,-1.118213 -3.87046,7.426931 0.26807,2.957528 0.95273,5.504292 0.13099,9.536415 1.72652,-0.771831 3.36823,-0.795943 3.6512,1.071985 -1.14005,-7.175826 -4.7438,-8.30768 0.0883,-18.035331 z"
       id="path4140"
       sodipodi:nodetypes="cccccc" />
    <path
       style="fill:#b3b3b3;stroke:#b3b3b3;stroke-width:0.264583px;stroke-linecap:butt;stroke-linejoin:miter;stroke-opacity:1"
       d="m 107.33777,43.923593 c 0.45625,-1.786295 7.53556,-7.925528 12.98461,-6.742772 8.25226,10.097625 -4.18455,-1.462873 -12.98461,6.742772 z"
       id="path4142"
       sodipodi:nodetypes="ccc" />
    <path
       style="fill:#b3b3b3;stroke:#b3b3b3;stroke-width:0.116172px;stroke-linecap:butt;stroke-linejoin:miter;stroke-opacity:1"
       d="m 98.626677,55.177201 c 1.104551,-1.439091 1.054083,0.493474 0.697889,1.201099 -1.881918,1.956758 -1.98538,1.41236 -3.42237,1.700448 1.497928,-0.672745 1.523301,-0.91203 2.724481,-2.901547 z"
       id="path4146"
       sodipodi:nodetypes="cccc" />
    <path
       style="fill:#b3b3b3;stroke:#b3b3b3;stroke-width:0.17054px;stroke-linecap:butt;stroke-linejoin:miter;stroke-opacity:1"
       d="m 131.2459,57.31691 c 2.18453,1.134674 1.79591,2.440433 2.53323,3.505174 0.5519,-1.099845 0.94483,-2.881008 -0.21457,-3.584223 -2.62491,-0.983847 -3.66222,-0.715425 -2.31866,0.07905 z"
       id="path4148"
       sodipodi:nodetypes="cccc"
       inkscape:transform-center-x="1.0769837"
       inkscape:transform-center-y="0.32407384" />
    <path
       style="fill:#b3b3b3;stroke:#b3b3b3;stroke-width:0.264583px;stroke-linecap:butt;stroke-linejoin:miter;stroke-opacity:1"
       d="m 89.834388,72.108228 c 0.505487,1.248863 1.186511,2.393031 3.432382,2.802379 4.255162,-0.358927 4.167681,-0.366728 6.296383,-0.633681 1.640057,-0.558454 1.702117,2.063558 3.616367,2.488514 v 0 c 2.2777,-0.536983 1.65536,-2.054283 3.55435,-3.060692 2.60526,0.04893 2.67928,0.750497 4.56784,1.1328 3.60074,-0.01405 4.60532,-1.875209 6.13467,-3.323947 -2.02631,0.810835 -3.83297,2.422503 -6.4906,1.739822 -2.74084,-0.589877 -2.32793,-2.312764 -5.08313,-0.859001 -0.52475,1.813037 -1.19197,1.68257 -2.50088,2.245662 -0.90106,-0.08873 -2.2398,-0.896713 -2.59494,-2.245661 -1.391802,-1.043839 -3.767033,1.598458 -7.658512,1.324609 -1.558467,0.13872 -2.225916,-1.01125 -3.27393,-1.610804 z"
       id="path4150"
       sodipodi:nodetypes="cccccccccccccc" />
    <path
       style="display:inline;fill:#b3b3b3;stroke:#b3b3b3;stroke-width:0.264583px;stroke-linecap:butt;stroke-linejoin:miter;stroke-opacity:1"
       d="m 98.544649,44.085134 c -0.45625,-1.786295 -7.53556,-7.925528 -12.98461,-6.742772 -8.25226,10.097625 4.18455,-1.462873 12.98461,6.742772 z"
       id="path4142-8"
       sodipodi:nodetypes="ccc" />
    <path
       style="fill:#b3b3b3;stroke:#b3b3b3;stroke-width:0.264583px;stroke-linecap:butt;stroke-linejoin:miter;stroke-opacity:1"
       d="m 78.585138,52.214742 c 5.840265,5.544281 10.155072,5.438304 14.402622,5.08321 6.612004,-1.909849 5.638917,-2.120751 4.424504,-8.373158 -1.197403,-4.316984 -4.066596,-5.843715 -7.904835,-5.753089 -5.964845,1.213267 -6.253851,7.483125 -10.922291,9.043037 z"
       id="path4289"
       sodipodi:nodetypes="ccccc" />
    <path
       style="fill:#b3b3b3;stroke:#b3b3b3;stroke-width:0.264583px;stroke-linecap:butt;stroke-linejoin:miter;stroke-opacity:1"
       d="m 116.98807,42.777732 c -3.85029,1.000736 -5.21009,-0.400822 -7.90488,5.753091 -2.01029,9.927109 0.80396,7.703153 4.54513,8.45744 5.52261,0.252011 10.7872,-3.73058 14.28205,-5.167493 -4.90602,-1.890422 -4.13454,-7.052571 -10.9223,-9.043038 z"
       id="path4291"
       sodipodi:nodetypes="ccccc" />
    <path
       style="fill:#666666;stroke:#666666;stroke-width:0.264583px;stroke-linecap:butt;stroke-linejoin:miter;stroke-opacity:1"
       d="m 89.507429,43.171705 c 3.841327,-0.308549 6.228984,1.194015 7.904835,5.753089 -0.667857,2.813388 0.101875,5.666566 -4.424506,8.373158 C 88.07922,54.954934 88.59395,49.18915 89.507429,43.171705 Z"
       id="path4293"
       sodipodi:nodetypes="cccc" />
    <path
       style="fill:#666666;stroke:#666666;stroke-width:0.264583px;stroke-linecap:butt;stroke-linejoin:miter;stroke-opacity:1"
       d="m 116.98807,42.777732 c -3.56262,-0.1 -6.47009,1.224966 -7.90483,5.75309 0.38445,3.722541 1.20076,7.100005 4.54508,8.45744 4.59791,-3.163664 4.29043,-8.546154 3.35975,-14.21053 z"
       id="path4295"
       sodipodi:nodetypes="cccc" />
    <path
       style="fill:#1a1a1a;stroke:#1a1a1a;stroke-width:0.264583px;stroke-linecap:butt;stroke-linejoin:miter;stroke-opacity:1"
       d="m 90.945294,48.619407 c -0.161176,2.882354 2.62979,6.375207 3.942279,2.653017 0.385395,-4.459775 -3.141896,-8.089242 -3.942279,-2.653017 z"
       id="path4297"
       sodipodi:nodetypes="ccc" />
    <path
       style="fill:#ffffff;stroke:#ffffff;stroke-width:0.264583px;stroke-linecap:butt;stroke-linejoin:miter;stroke-opacity:1"
       d="m 90.721346,45.491278 c -0.96482,0.7336 -1.041762,1.449049 -1.030994,2.162704 0.967157,1.307285 1.821493,1.085545 2.666219,0.73357 -0.06854,-1.484901 -0.25823,-2.837739 -1.635225,-2.896274 z"
       id="path4301"
       sodipodi:nodetypes="cccc" />
    <path
       style="fill:#ffffff;stroke:#ffffff;stroke-width:0.264583px;stroke-linecap:butt;stroke-linejoin:miter;stroke-opacity:1"
       d="m 95.107296,53.53015 c -0.53531,-0.52955 -1.030679,-0.538154 -1.453531,0.399092 1.135113,2.321677 1.91574,0.279542 1.453531,-0.399092 z"
       id="path4303"
       sodipodi:nodetypes="ccc" />
    <path
       style="display:inline;fill:#1a1a1a;stroke:#1a1a1a;stroke-width:0.264583px;stroke-linecap:butt;stroke-linejoin:miter;stroke-opacity:1"
       d="m 111.5964,48.54888 c -0.16117,2.882354 2.62979,6.375207 3.94228,2.653017 0.3854,-4.459775 -3.14189,-8.089242 -3.94228,-2.653017 z"
       id="path4297-9"
       sodipodi:nodetypes="ccc" />
    <path
       style="display:inline;fill:#ffffff;stroke:#ffffff;stroke-width:0.264583px;stroke-linecap:butt;stroke-linejoin:miter;stroke-opacity:1"
       d="m 111.37245,45.420751 c -0.96482,0.7336 -1.04176,1.449049 -1.03099,2.162704 0.96716,1.307285 1.82149,1.085545 2.66622,0.73357 -0.0685,-1.484901 -0.25823,-2.837739 -1.63523,-2.896274 z"
       id="path4301-7"
       sodipodi:nodetypes="cccc" />
    <path
       style="display:inline;fill:#ffffff;stroke:#ffffff;stroke-width:0.264583px;stroke-linecap:butt;stroke-linejoin:miter;stroke-opacity:1"
       d="m 115.7584,53.459623 c -0.53531,-0.52955 -1.03067,-0.538154 -1.45353,0.399092 1.13512,2.321678 1.91574,0.279542 1.45353,-0.399092 z"
       id="path4303-3"
       sodipodi:nodetypes="ccc" />
  </g>
  <g
     inkscape:label="traits visage"
     inkscape:groupmode="layer"
     id="layer1"
     style="display:inline">
    <path
       style="fill:none;stroke:#4d4d4d;stroke-width:0.182313px;stroke-linecap:butt;stroke-linejoin:miter;stroke-opacity:1"
       d="m 109.08319,48.530823 c 1.57501,-3.059652 1.50721,-5.880941 7.90488,-5.753089 6.91575,1.577259 5.53002,6.456998 10.9223,9.043037 7.52004,1.820443 8.75038,-6.06794 4.94605,-7.303802"
       id="path3959"
       sodipodi:nodetypes="cccc" />
    <path
       style="fill:none;stroke:#4d4d4d;stroke-width:0.182313px;stroke-linecap:butt;stroke-linejoin:miter;stroke-opacity:1"
       d="m 97.412265,48.924796 c -1.575001,-3.059653 -1.507201,-5.880942 -7.904835,-5.75309 -6.915731,1.577259 -5.529997,6.456998 -10.92229,9.043036 -7.520033,1.820439 -8.750376,-6.067939 -4.946045,-7.303801"
       id="path3959-5"
       sodipodi:nodetypes="cccc" />
    <path
       style="fill:none;stroke:#333333;stroke-width:0.264583px;stroke-linecap:butt;stroke-linejoin:miter;stroke-opacity:1"
       d="m 98.332182,61.452839 c -0.433352,4.378206 10.915328,4.280486 10.349728,-0.322507"
       id="path3994"
       sodipodi:nodetypes="cc" />
    <path
       style="fill:none;stroke:#333333;stroke-width:0.264583px;stroke-linecap:butt;stroke-linejoin:miter;stroke-opacity:1"
       d="m 89.834389,72.108229 c 2.758455,3.476782 6.642146,1.641141 9.728764,1.110364 2.167567,0.12509 2.179307,1.940978 3.657067,2.085588 1.87453,-0.0834 1.47342,-1.442351 3.51365,-2.128598 5.08452,0.671607 6.83637,2.138288 10.70251,-1.661981"
       id="path3996"
       sodipodi:nodetypes="ccccc" />
    <path
       style="fill:none;stroke:#333333;stroke-width:0.264583px;stroke-linecap:butt;stroke-linejoin:miter;stroke-opacity:1"
       d="m 97.464509,77.188692 c 4.686071,2.323945 9.081051,1.733868 12.664901,-0.10613"
       id="path3998"
       sodipodi:nodetypes="cc" />
    <path
       style="fill:none;stroke:#333333;stroke-width:0.264583px;stroke-linecap:butt;stroke-linejoin:miter;stroke-opacity:1"
       d="m 100.94286,69.105947 c 0.87451,1.017134 1.72426,2.071668 4.33829,0.462277"
       id="path4000"
       sodipodi:nodetypes="cc" />
    <path
       style="fill:none;stroke:#333333;stroke-width:0.264583px;stroke-linecap:butt;stroke-linejoin:miter;stroke-opacity:1"
       d="m 89.50743,43.171706 c -0.976762,3.988102 -1.435618,7.894585 1.005364,12.151799 1.215025,1.681831 2.196657,2.668025 4.276084,0.927414 1.713766,-1.634981 2.28102,-4.372425 2.623386,-7.326124"
       id="path4002"
       sodipodi:nodetypes="cccc" />
    <path
       style="fill:none;stroke:#333333;stroke-width:0.264583px;stroke-linecap:butt;stroke-linejoin:miter;stroke-opacity:1"
       d="m 116.98807,42.777734 c 0.97677,3.988102 1.43562,7.894585 -1.00536,12.151804 -1.21503,1.681828 -2.19666,2.668025 -4.27609,0.927414 -1.71376,-1.634981 -2.28102,-4.372427 -2.62338,-7.32613"
       id="path4002-9"
       sodipodi:nodetypes="cccc" />
  </g>
  <g
     inkscape:groupmode="layer"
     id="layer17"
     inkscape:label="cheuveux"
     style="display:inline">
    <path
       style="fill:#cccccc;stroke:#cccccc;stroke-width:0.264583px;stroke-linecap:butt;stroke-linejoin:miter;stroke-opacity:1"
       d="M 66.340743,61.754279 C 63.526501,51.277405 65.611718,50.004002 61.046372,38.103175 58.551271,29.00371 81.487319,27.074851 86.932642,19.053233 96.024995,4.994811 114.96349,18.784855 128.66621,19.81652 c 12.41287,-1.484229 19.54084,15.56551 20.54408,21.769825 1.69537,7.481027 2.41852,18.79202 -6.22654,22.984546 0.64981,-9.234376 1.46181,-18.467518 -4.9956,-27.757784 -19.03835,-12.312206 -28.52587,-3.16065 -32.62676,-11.675078 -14.008108,14.110306 -12.477047,4.027865 -18.71557,6.041797 -10.690209,9.006509 -15.019351,3.447981 -18.428739,12.320106 -3.58955,14.237548 -1.304199,12.3162 -1.876338,18.254347 z"
       id="path4027"
       sodipodi:nodetypes="ccccccccccc" />
    <path
       style="fill:#cccccc;stroke:#cccccc;stroke-width:0.264583px;stroke-linecap:butt;stroke-linejoin:miter;stroke-opacity:1"
       d="m 149.93934,55.067485 c 13.33694,-1.068214 1.88702,4.909273 11.46119,5.47199 8.70737,6.626874 -1.83368,12.576488 1.13536,16.415957 -8.27658,0.11562 -8.94483,-1.525751 -14.55654,2.655365 -10.813,4.763953 -10.84734,-6.487564 -4.9956,-15.039906 2.30562,-1.193661 4.61833,-3.471419 6.95559,-9.503406 z"
       id="path4029"
       sodipodi:nodetypes="cccccc" />
  </g>
  <g
     inkscape:groupmode="layer"
     id="layer21"
     inkscape:label="ombres cheuveux 1">
    <path
       style="fill:#808080;stroke:#808080;stroke-width:0.264583px;stroke-linecap:butt;stroke-linejoin:miter;stroke-opacity:1"
       d="m 161.40053,60.539473 c 2.70012,4.817363 3.73783,13.047518 -2.84205,15.54462 -4.64315,0.461195 -7.14165,0.514079 -14.99342,1.376069 -7.97116,1.494309 -1.23577,-8.616399 -0.58131,-12.889272 -2.2628,4.593115 -6.33021,8.704587 -3.15941,14.747906 7.86893,4.987686 15.59621,-4.659926 22.71155,-2.363364 4.92682,-12.962656 1.13116,-13.609787 -1.13536,-16.415959 z"
       id="path4185"
       sodipodi:nodetypes="ccccccc" />
    <path
       style="fill:#6a6a6a;fill-opacity:1;stroke:#6b6b6b;stroke-width:0.264583px;stroke-linecap:butt;stroke-linejoin:miter;stroke-opacity:1"
       d="m 149.93934,55.067485 -6.95559,9.503405 c 3.50578,6.798242 6.37783,13.873993 8.07471,5.459452 -1.6336,-0.413895 0.25948,-2.736367 10.34207,-9.490869 -3.55012,1.520474 -8.61161,5.630538 -9.75646,3.029805 -4.25879,1.190792 8.27787,-9.345396 -1.70473,-8.501793 z"
       id="path4189"
       sodipodi:nodetypes="cccccc" />
    <path
       style="fill:#808080;stroke:#808080;stroke-width:0.264583px;stroke-linecap:butt;stroke-linejoin:miter;stroke-opacity:1"
       d="m 146.67237,33.500054 c 0.0133,4.963834 3.4594,11.499205 0.0119,14.878729 -0.7977,-17.381677 -0.1945,1.03166 -3.52559,11.556818 l -0.17497,4.635289 c 3.19949,-2.056165 6.02607,-4.582898 6.95559,-9.503405 1.89831,-9.463193 -0.17753,-15.144554 -3.26697,-21.567431 z"
       id="path4191"
       sodipodi:nodetypes="ccccccc" />
    <path
       style="fill:#808080;stroke:#808080;stroke-width:0.264583px;stroke-linecap:butt;stroke-linejoin:miter;stroke-opacity:1"
       d="m 104.891,13.762085 c 11.31671,4.023571 13.30024,7.047672 11.28192,9.643224 26.82986,0.644966 11.72623,-2.11654 12.49329,-3.588789 -6.86133,-0.482983 -15.99191,-3.990464 -23.77521,-6.054435 z"
       id="path4193"
       sodipodi:nodetypes="cccc" />
    <path
       style="fill:#808080;stroke:#808080;stroke-width:0.264583px;stroke-linecap:butt;stroke-linejoin:miter;stroke-opacity:1"
       d="m 65.884168,36.161967 c -2.108467,1.285951 -2.203748,6.30185 -1.447959,16.484776 l 1.904534,9.107535 c 0.112077,-6.422439 -1.324674,-9.978484 3.962486,-25.978374 -8.022466,14.012861 -5.730334,7.431927 -4.419061,0.386063 z"
       id="path4195"
       sodipodi:nodetypes="ccccc" />
    <path
       style="fill:#808080;stroke:#808080;stroke-width:0.264583px;stroke-linecap:butt;stroke-linejoin:miter;stroke-opacity:1"
       d="m 86.645818,31.179825 c -3.469609,1.157658 -0.920727,2.418783 -9.717111,4.294131 -8.070559,2.552071 -3.97273,2.316381 -2.00304,1.955354 2.869806,-1.160283 9.777117,-3.510461 11.720151,-6.249485 z"
       id="path4197"
       sodipodi:nodetypes="cccc" />
    <path
       style="fill:#808080;stroke:#808080;stroke-width:0.264583px;stroke-linecap:butt;stroke-linejoin:miter;stroke-opacity:1"
       d="m 105.36139,25.138029 c -0.74993,-4.488344 -1.44864,-3.403322 -2.15551,-3.205542 -0.0952,5.016631 -2.51232,5.921499 -6.417792,10.387402 2.144435,-1.006327 3.726032,-1.586116 8.573302,-7.18186 z"
       id="path4199"
       sodipodi:nodetypes="cccc" />
    <path
       style="fill:#808080;stroke:#808080;stroke-width:0.264583px;stroke-linecap:butt;stroke-linejoin:miter;stroke-opacity:1"
       d="m 88.643235,18.06895 c -0.706276,3.28877 0.799484,7.098052 -1.045616,9.303304 -1.00817,1.795907 -5.655467,1.955055 -8.745127,2.814776 3.056473,-1.651731 9.255374,-7.165854 9.790743,-12.11808 z"
       id="path4201"
       sodipodi:nodetypes="cccc" />
  </g>
  <g
     inkscape:groupmode="layer"
     id="layer22"
     inkscape:label="ombres robe">
    <path
       style="display:inline;fill:#666666;stroke:#666666;stroke-width:0.264583px;stroke-linecap:butt;stroke-linejoin:miter;stroke-opacity:1"
       d="m 53.854864,247.72997 c 7.070637,-3.14542 9.798353,-10.88456 10.54772,-20.71628 -0.590757,24.74668 7.695263,39.49548 16.845378,-14.47862 0.847275,15.80753 9.006204,63.39318 8.527262,14.76898 2.525293,46.57363 10.933526,26.90009 15.078296,16.00834 -4.886523,17.32387 40.90691,17.27683 27.73292,-5.22622 19.19555,37.37525 2.22729,-19.27123 -0.86991,-35.83996 11.40661,22.51654 25.20222,61.55436 14.29373,18.08393 3.97456,11.47839 5.5111,27.51495 13.21477,22.85321 -21.89024,16.89029 -61.627338,22.71127 -105.370166,4.54662 z"
       id="path4223"
       sodipodi:nodetypes="cccccccccc" />
    <path
       style="display:inline;fill:#666666;stroke:#666666;stroke-width:0.264583px;stroke-linecap:butt;stroke-linejoin:miter;stroke-opacity:1"
       d="m 73.08122,154.42796 c -5.067473,29.33955 0.0532,28.52172 -5.693546,45.47586 5.21453,-14.17179 2.198366,-50.07421 16.269186,-40.86366 10.938705,3.53309 -3.287568,27.94195 -0.324165,35.81738 1.897572,-17.39061 8.676386,-36.51188 13.608775,-35.84778 14.94135,1.8537 10.61416,55.70576 15.92124,83.55864 -1.78029,-27.40692 -0.28346,-70.23881 -5.34088,-82.22075 3.18535,-10.68593 8.99795,33.38517 10.23993,51.27542 -0.83801,-17.2645 -3.66526,-49.25798 -4.72658,-52.14748 6.87307,-8.22801 18.42563,15.36848 20.75165,33.2252 l -3.38095,-32.68967 c 4.00044,-10.21393 7.18339,15.72777 10.77509,23.5917 -1.5052,-7.83842 -2.62025,-22.51125 -6.44591,-29.31918 8.14496,-9.01737 -16.61404,10.28487 -12.94926,-6.01914 -6.66055,12.08694 -8.44608,3.55775 -10.91717,0.81035 3.65482,5.21327 -17.627748,9.01603 -11.433405,0.37863 -10.463043,9.92006 -7.975087,1.22893 -8.711063,-4.28656 -5.576728,23.33738 -25.505996,-4.12182 -17.642942,9.26104 z"
       id="path4221"
       sodipodi:nodetypes="cccccccccccccccccc" />
    <path
       style="display:inline;fill:#666666;stroke:#666666;stroke-width:0.264583px;stroke-linecap:butt;stroke-linejoin:miter;stroke-opacity:1"
       d="m 84.509982,98.163404 c 2.642458,6.592566 0.354269,11.066366 0.526201,16.597306 1.588889,-3.32119 0.511998,-14.793158 4.375771,-11.57904 5.628392,4.06827 9.73138,4.82866 14.384936,6.40982 C 96.100678,106.70978 76.737309,86.051225 84.509982,98.163404 Z"
       id="path4225"
       sodipodi:nodetypes="ccccc" />
    <path
       style="display:inline;fill:#333333;stroke:#333333;stroke-width:0.264583px;stroke-linecap:butt;stroke-linejoin:miter;stroke-opacity:1"
       d="m 74.395853,116.49533 c 0.587244,3.75078 -0.516713,11.23014 2.091452,11.79007 10e-7,0 0.972974,-3.81643 1.083668,-5.36738 -0.174255,-2.09412 -2.039036,-4.27768 -3.17512,-6.42269 z"
       id="path4227"
       sodipodi:nodetypes="cccc" />
  </g>
</svg>
